<define-tag pagetitle>DSA-4820-1 horizon</define-tag>
<define-tag report_date>2020-12-27</define-tag>
<define-tag secrefs>CVE-2020-29565 Bug#976872</define-tag>
<define-tag packages>horizon</define-tag>
<define-tag isvulnerable>yes</define-tag>
<define-tag fixed>yes</define-tag>
<define-tag fixed-section>no</define-tag>

#use wml::debian::security



</dl>
