<define-tag pagetitle>DSA-4783-1 sddm</define-tag>
<define-tag report_date>2020-11-05</define-tag>
<define-tag secrefs>CVE-2020-28049 Bug#973748</define-tag>
<define-tag packages>sddm</define-tag>
<define-tag isvulnerable>yes</define-tag>
<define-tag fixed>yes</define-tag>
<define-tag fixed-section>no</define-tag>

#use wml::debian::security



</dl>
