<define-tag pagetitle>DSA-4666-1 openldap</define-tag>
<define-tag report_date>2020-4-28</define-tag>
<define-tag secrefs>CVE-2020-12243</define-tag>
<define-tag packages>openldap</define-tag>
<define-tag isvulnerable>yes</define-tag>
<define-tag fixed>yes</define-tag>
<define-tag fixed-section>no</define-tag>

#use wml::debian::security



</dl>
