<define-tag pagetitle>DLA-2577-1 python-pysaml2</define-tag>
<define-tag report_date>2021-02-26</define-tag>
<define-tag secrefs>CVE-2017-1000433 CVE-2021-21239 Bug#886423 Bug#CVE-2021-21239</define-tag>
<define-tag packages>python-pysaml2</define-tag>
<define-tag isvulnerable>yes</define-tag>
<define-tag fixed>yes</define-tag>
<define-tag fixed-section>no</define-tag>

#use wml::debian::security

