<define-tag pagetitle>DLA-2100-1 libexif</define-tag>
<define-tag report_date>2020-02-10</define-tag>
<define-tag secrefs>CVE-2019-9278 Bug#945948</define-tag>
<define-tag packages>libexif</define-tag>
<define-tag isvulnerable>yes</define-tag>
<define-tag fixed>yes</define-tag>
<define-tag fixed-section>no</define-tag>

#use wml::debian::security

