<define-tag pagetitle>DLA-2151-1 icu</define-tag>
<define-tag report_date>2020-03-20</define-tag>
<define-tag secrefs>CVE-2020-10531 Bug#953747</define-tag>
<define-tag packages>icu</define-tag>
<define-tag isvulnerable>yes</define-tag>
<define-tag fixed>yes</define-tag>
<define-tag fixed-section>no</define-tag>

#use wml::debian::security

