<define-tag pagetitle>DLA-2366-1 imagemagick</define-tag>
<define-tag report_date>2020-9-7</define-tag>
<define-tag secrefs>CVE-2017-12140 CVE-2017-12429 CVE-2017-12430 CVE-2017-12435 CVE-2017-12563 CVE-2017-12643 CVE-2017-12670 CVE-2017-12674 CVE-2017-12691 CVE-2017-12692 CVE-2017-12693 CVE-2017-12806 CVE-2017-12875 CVE-2017-13061 CVE-2017-13133 CVE-2017-13658 CVE-2017-13768 CVE-2017-14060 CVE-2017-14172 CVE-2017-14173 CVE-2017-14174 CVE-2017-14175 CVE-2017-14249 CVE-2017-14341 CVE-2017-14400 CVE-2017-14505 CVE-2017-14532 CVE-2017-14624 CVE-2017-14625 CVE-2017-14626 CVE-2017-14739 CVE-2017-14741 CVE-2017-15015 CVE-2017-15017 CVE-2017-15281 CVE-2017-17682 CVE-2017-17914 CVE-2017-18209 CVE-2017-18211 CVE-2017-18271 CVE-2017-18273 CVE-2017-1000445 CVE-2017-1000476 CVE-2018-16643 CVE-2018-16749 CVE-2018-18025 CVE-2019-11598 CVE-2019-13135 CVE-2019-13308 CVE-2019-13391 CVE-2019-15139 Bug#870020 Bug#870019 Bug#876105 Bug#869727 Bug#886281 Bug#873059 Bug#870504</define-tag>
<define-tag packages>imagemagick</define-tag>
<define-tag isvulnerable>yes</define-tag>
<define-tag fixed>yes</define-tag>
<define-tag fixed-section>no</define-tag>

#use wml::debian::security

