<define-tag pagetitle>DLA-1577-1 xen</define-tag>
<define-tag report_date>2018-11-12</define-tag>
<define-tag secrefs>CVE-2018-7540 CVE-2018-7541 CVE-2018-8897 CVE-2018-12891 CVE-2018-12893 CVE-2018-15469 CVE-2018-15470</define-tag>
<define-tag packages>xen</define-tag>
<define-tag isvulnerable>yes</define-tag>
<define-tag fixed>yes</define-tag>
<define-tag fixed-section>no</define-tag>

#use wml::debian::security

