<define-tag pagetitle>DSA-4553-1 php7.3</define-tag>
<define-tag report_date>2019-10-28</define-tag>
<define-tag secrefs>CVE-2019-11043</define-tag>
<define-tag packages>php7.3</define-tag>
<define-tag isvulnerable>yes</define-tag>
<define-tag fixed>yes</define-tag>
<define-tag fixed-section>no</define-tag>

#use wml::debian::security



</dl>
