<define-tag pagetitle>DLA-1756-1 libxslt</define-tag>
<define-tag report_date>2019-04-15</define-tag>
<define-tag secrefs>CVE-2019-11068</define-tag>
<define-tag packages>libxslt</define-tag>
<define-tag isvulnerable>yes</define-tag>
<define-tag fixed>yes</define-tag>
<define-tag fixed-section>no</define-tag>

#use wml::debian::security

