<define-tag pagetitle>DLA-1689-1 elfutils</define-tag>
<define-tag report_date>2019-2-25</define-tag>
<define-tag secrefs>CVE-2017-7608 CVE-2017-7610 CVE-2017-7611 CVE-2017-7612 CVE-2017-7613 CVE-2018-16062 CVE-2018-18310 CVE-2018-18520 CVE-2018-18521 CVE-2019-7149 CVE-2019-7150 CVE-2019-7665</define-tag>
<define-tag packages>elfutils</define-tag>
<define-tag isvulnerable>yes</define-tag>
<define-tag fixed>yes</define-tag>
<define-tag fixed-section>no</define-tag>

#use wml::debian::security

