<define-tag pagetitle>DLA-501-1 gdk-pixbuf</define-tag>
<define-tag report_date>2016-6-2</define-tag>
<define-tag secrefs>CVE-2015-7552</define-tag>
<define-tag packages>gdk-pixbuf</define-tag>
<define-tag isvulnerable>yes</define-tag>
<define-tag fixed>yes</define-tag>
<define-tag fixed-section>no</define-tag>

#use wml::debian::security

